Method Package - Abnormal returns
…
Warning: One or more parsing issues, call `problems()` on your data frame for details,
e.g.:
  dat <- vroom(...)
  problems(dat)

# A tibble: 25,400 × 6
   date        mkt_rf     smb     hml      rf      mkt
   <date>       <dbl>   <dbl>   <dbl>   <dbl>    <dbl>
 1 1926-07-01  0.001  -0.0025 -0.0027 0.00009  0.00109
 2 1926-07-02  0.0045 -0.0033 -0.0006 0.00009  0.00459
 3 1926-07-06  0.0017  0.003  -0.0039 0.00009  0.00179
 4 1926-07-07  0.0009 -0.0058  0.0002 0.00009  0.00099
 5 1926-07-08  0.0021 -0.0038  0.0019 0.00009  0.00219
 6 1926-07-09 -0.0071  0.0043  0.0057 0.00009 -0.00701
 7 1926-07-10  0.0062 -0.0053 -0.001  0.00009  0.00629
 8 1926-07-12  0.0004 -0.0003  0.0064 0.00009  0.00049
 9 1926-07-13  0.0048 -0.0028 -0.002  0.00009  0.00489
10 1926-07-14  0.0004  0.0007 -0.0043 0.00009  0.00049
# … with 25,390 more rows
…
Putting it all together

Finally, we want to put all the data together. You can see that we only merge all the data at the end. This is good practice. I would advise to not even try to build up a complete dataset by starting with for instance the I/B/E/S data and than to gradually add the variables that you need. This is a very error prone process and it is hard to make changes without redoing the whole data cleaning process.

First, we need more stock price data and the market value from the CRSP data. We collect this in the clean_prices dataset. Remark that I remove the data where the price is negative because that means that there were no trades that day. Dellavigna and Pollet (2009) require the price and market value 5 days before the earnings announcement. My guess is that they are trying to avoid any effects of information leaking out into the market before the earnings announcement. I then merge the earnings announcement data with the analyst estimates data, the abnormal return data and the price and market value data. Finally, I calculate the earnings surprise as the difference between the actual and the median predicted earnings per share divided by the price per share to get the earnings surprise per dollar of market value.

clean_prices <- all_stocks %>%
  filter(prc > 0) %>%
  select(permno, date, prc, shrout) %>%
  mutate(market_value = prc * shrout) %>%
  select(-shrout) %>%
  print()

# A tibble: 14,339,244 × 4
   permno date         prc market_value
    <dbl> <date>     <dbl>        <dbl>
 1  10002 1994-03-10 13          38987 
 2  10010 1994-03-10  7.62       71278.
 3  10011 1994-03-10  7.12       37784.
 4  10012 1994-03-10  2.38       34630.
 5  10019 1994-03-10  8.75       45832.
 6  10025 1994-03-10 18.1       132838.
 7  10026 1994-03-10 18.2       188723.
 8  10032 1994-03-10 16.2       104910 
 9  10035 1994-03-10 18.2       237779.
10  10042 1994-03-10  3.56       90195.
# … with 14,339,234 more rows
…
# A tibble: 130,807 × 21
   ticker actual pdf   anndats_…¹ gvkey permno cusip rdq        anndat         N
   <chr>   <dbl> <chr> <date>     <chr>  <dbl> <chr> <date>     <date>     <int>
 1 A2     -0.08  D     2006-04-26 0010…  10560 0039… 2006-04-26 2006-04-26     4
 2 A2     -0.04  D     2004-10-21 0010…  10560 0039… 2004-10-21 2004-10-21     1
 3 A2     -0.11  D     2005-01-26 0010…  10560 0039… 2005-01-26 2005-01-26     2
 4 A2     -0.11  D     2005-04-27 0010…  10560 0039… 2005-04-27 2005-04-27     3
 5 A2     -0.05  D     2005-07-27 0010…  10560 0039… 2005-07-27 2005-07-27     2
 6 A2     -0.07  D     2005-10-26 0010…  10560 0039… 2005-10-26 2005-10-26     4
 7 A2     -0.1   D     2006-02-01 0010…  10560 0039… 2006-02-01 2006-02-01     5
 8 AA0A    0.107 D     2003-05-08 0010…  10656 0044… 2003-05-08 2003-05-08     1
 9 AA0A    0.129 D     2003-11-06 0010…  10656 0044… 2003-11-06 2003-11-06     1
10 AA0A    0.127 D     2004-02-11 0010…  10656 0044… 2004-02-11 2004-02-11     1
# … with 130,797 more rows, 11 more variables: median <dbl>, mean <dbl>,
#   mean_days <dbl>, car_short <dbl>, car_long <dbl>, date_minus5 <date>,
#   date <date>, prc <dbl>, market_value <dbl>, surprise <dbl>, weekday <ord>,
#   and abbreviated variable name ¹​anndats_act
…
