Method Package - Assignment
…
Warning: One or more parsing issues, call `problems()` on your data frame for details,
e.g.:
  dat <- vroom(...)
  problems(dat)

# A tibble: 25,400 × 6
   date        mkt_rf     smb     hml      rf      mkt
   <date>       <dbl>   <dbl>   <dbl>   <dbl>    <dbl>
 1 1926-07-01  0.001  -0.0025 -0.0027 0.00009  0.00109
 2 1926-07-02  0.0045 -0.0033 -0.0006 0.00009  0.00459
 3 1926-07-06  0.0017  0.003  -0.0039 0.00009  0.00179
 4 1926-07-07  0.0009 -0.0058  0.0002 0.00009  0.00099
 5 1926-07-08  0.0021 -0.0038  0.0019 0.00009  0.00219
 6 1926-07-09 -0.0071  0.0043  0.0057 0.00009 -0.00701
 7 1926-07-10  0.0062 -0.0053 -0.001  0.00009  0.00629
 8 1926-07-12  0.0004 -0.0003  0.0064 0.00009  0.00049
 9 1926-07-13  0.0048 -0.0028 -0.002  0.00009  0.00489
10 1926-07-14  0.0004  0.0007 -0.0043 0.00009  0.00049
# ℹ 25,390 more rows
…
Putting it all together

The next two code blocks gather the necessary market price and market value information. Next we combine the earning announcement data with the analyst expectations data, the abnormal returns, and the stock price data. Finally, we calculate the earnings surprise scaled by the stock price.

You can just include this code as is.

clean_prices <- all_stocks %>%
  filter(prc > 0) %>%
  select(permno, date, prc, shrout) %>%
  mutate(market_value = prc * shrout) %>%
  select(-shrout) %>%
  print()

# A tibble: 14,336,092 × 4
   permno date         prc market_value
    <dbl> <date>     <dbl>        <dbl>
 1  10002 1994-03-10  13         38987 
 2  10002 1994-03-11  13.8       41236.
 3  10002 1994-03-16  13.2       39737.
 4  10002 1994-03-22  13.4       40112.
 5  10002 1994-03-24  13.1       39362.
 6  10002 1994-04-07  12.5       37488.
 7  10002 1994-04-15  14         41986 
 8  10002 1994-04-18  14         41986 
 9  10002 1994-04-22  12.5       37488.
10  10002 1994-04-28  14         41986 
# ℹ 14,336,082 more rows
…
