Chapter 4 Research tools - Data Analysis | Just Enough To Be Dangerous
…
You can see that the company, American Airlines, has had three
CEOs since 2011. I used the gvkey to select a company and not
its name. You will often use an id or a database key especially
if you are working with multiple datasets and you want to link
observations from one dataset to observations in the other
dataset.

We can also filter data based on other variables. For instance,
the below filters the observations from 2014 where the CEO had
a salary over $1,000,000.

filter(us_comp, salary > 1000, year == 2014)

## # A tibble: 476 x 22
##     year gvkey cusip exec_fullname coname ceoann execid bonus salary
##    <dbl> <chr> <chr> <chr>         <chr>  <chr>  <chr>  <dbl>  <dbl>
##  1  2014 0010… 7234… Donald E. Br… PINNA… CEO    05835      0  1240 
##  2  2014 0010… 0028… Miles D. Whi… ABBOT… CEO    14300      0  1973.
##  3  2014 0011… 0079… Rory P. Read  ADVAN… CEO    42390      0  1000.
##  4  2014 0013… 4385… David M. Cote HONEY… CEO    20931   5500  1866.
##  5  2014 0013… 4280… John B. Hess  HESS … CEO    02132      0  1500 
##  6  2014 0014… 0255… Nicholas K. … AMERI… CEO    40778      0  1241.
##  7  2014 0014… 0258… Kenneth I. C… AMERI… CEO    02157   4500  2000 
##  8  2014 0014… 0010… Daniel Paul … AFLAC… CEO    00013      0  1441.
##  9  2014 0014… 0263… Jeffrey M. W… AMERI… CEO    11710   3640  1012.
## 10  2014 0014… 0268… Robert Herma… AMERI… CEO    20972      0  1385.
## # … with 466 more rows, and 13 more variables: stock_awards_fv <dbl>,
## #   stock_unvest_val <dbl>, eip_unearn_num <dbl>, eip_unearn_val <dbl>,
## #   option_awards <dbl>, option_awards_blk_value <dbl>,
## #   option_awards_num <dbl>, tdc1 <dbl>, tdc2 <dbl>, shrown_tot_pct <dbl>,
## #   becameceo <date>, joined_co <date>, reason <chr>

You can also select some variables if you are only interested in
those. If a variable has an undescriptive name, you can use
select to rename the variable. For instance, tdc1 is the total
compensation of a the CEO. A more descriptive name will help you
to remember what the variable actually means.

select(us_comp, year, coname, bonus, salary, total = tdc1)

## # A tibble: 17,622 x 5
##     year coname                      bonus salary total
##    <dbl> <chr>                       <dbl>  <dbl> <dbl>
##  1  2011 AAR CORP                        0   867  5786.
##  2  2012 AAR CORP                        0   878. 4183.
##  3  2013 AAR CORP                        0   906. 5248.
##  4  2014 AAR CORP                        0   906. 5235.
##  5  2015 AAR CORP                        0   755. 3524.
##  6  2016 AAR CORP                        0   835  6073.
##  7  2017 AAR CORP                        0   941  6284.
##  8  2018 AAR CORP                        0   750  4234.
##  9  2019 AAR CORP                        0   801. 3436.
## 10  2011 AMERICAN AIRLINES GROUP INC     0   614. 5527.
## # … with 17,612 more rows

You can also create new variables with the mutate function. I
created a variable that calculates what percentage of total
compensation is the CEO’s salary.

select(us_comp, year, coname, bonus, salary, total = tdc1) %>%
  mutate(salary_percentage = salary / total)  

## # A tibble: 17,622 x 6
##     year coname                      bonus salary total salary_percentage
##    <dbl> <chr>                       <dbl>  <dbl> <dbl>             <dbl>
##  1  2011 AAR CORP                        0   867  5786.             0.150
##  2  2012 AAR CORP                        0   878. 4183.             0.210
##  3  2013 AAR CORP                        0   906. 5248.             0.173
##  4  2014 AAR CORP                        0   906. 5235.             0.173
##  5  2015 AAR CORP                        0   755. 3524.             0.214
##  6  2016 AAR CORP                        0   835  6073.             0.138
##  7  2017 AAR CORP                        0   941  6284.             0.150
##  8  2018 AAR CORP                        0   750  4234.             0.177
##  9  2019 AAR CORP                        0   801. 3436.             0.233
## 10  2011 AMERICAN AIRLINES GROUP INC     0   614. 5527.             0.111
## # … with 17,612 more rows
…
You can use pipe statement to make your own descriptive
statistics table. I created a table with some statistics for each
firm. I first group the observations based on the gvkey and
then summarise each group with the same key by defining a number
of new variables.

group_by(us_comp, gvkey) %>%
  summarise(N = n(), N_CEO = n_distinct(execid), 
            average = mean(salary), sd = sd(salary),
            med = median(salary), minimum = min(salary), 
            maximum = max(salary)) %>%
  ungroup()

## # A tibble: 2,347 x 8
##    gvkey      N N_CEO average    sd   med minimum maximum
##    <chr>  <int> <int>   <dbl> <dbl> <dbl>   <dbl>   <dbl>
##  1 001004     9     2    849.  68.3  867     750     941 
##  2 001045     9     3    305. 316.   232.      0     688.
##  3 001072     8     2    677. 219.   652.    450     967.
##  4 001075     9     1   1259.  98.8 1277    1091    1395 
##  5 001076     9     3    727. 103.   700     567.    850 
##  6 001078     9     1   1908.  24.4 1900    1900    1973.
##  7 001094     8     3    563.  66.2  581.    437.    626.
##  8 001161     9     3    913. 143.   961.    566.   1026.
##  9 001177     7     1   1049.  86.4 1000     977.   1200 
## 10 001209     9     2   1196. 123.  1200     905.   1350 
## # … with 2,337 more rows
…
