Method Package - Introduction to Rstudio for Accounting and Finance
…
filter(us_comp, bonus == 0, year == 2012)

# A tibble: 1,669 × 22
    year gvkey  cusip  exec_…¹ coname ceoann execid bonus salary stock…² stock…³
   <dbl> <chr>  <chr>  <chr>   <chr>  <chr>  <chr>  <dbl>  <dbl>   <dbl>   <dbl>
 1  2012 001004 36110  David … AAR C… CEO    09249      0   878.    619.   6018 
 2  2012 001045 02376… Thomas… AMERI… CEO    26059      0   618.      0     310.
 3  2012 001075 72348… Donald… PINNA… CEO    05835      0  1146    7100.   9056.
 4  2012 001076 74319… Ronald… PROG … CEO    00283      0   850    2489    3210.
 5  2012 001078 282410 Miles … ABBOT… CEO    14300      0  1900    9429.      0 
 6  2012 001094 444610 Albert… ACETO… CEO    46204      0   626.      0     322.
 7  2012 001161 790310 Rory P… ADVAN… CEO    42390      0  1000.   3745.   1710.
 8  2012 001177 00817… Mark T… AETNA… CEO    31029      0   977.  11125.   9977.
 9  2012 001209 915810 John E… AIR P… CEO    27315      0  1200    3600.  10452.
10  2012 001230 11659… Bradle… ALASK… CEO    21308      0   420.   2579.   1689.
# … with 1,659 more rows, 11 more variables: eip_unearn_num <dbl>,
#   eip_unearn_val <dbl>, option_awards <dbl>, option_awards_blk_value <dbl>,
#   option_awards_num <dbl>, tdc1 <dbl>, tdc2 <dbl>, shrown_tot_pct <dbl>,
#   becameceo <date>, joined_co <date>, reason <chr>, and abbreviated variable
#   names ¹​exec_fullname, ²​stock_awards_fv, ³​stock_unvest_val
…
Moving on

select(us_comp, year, coname, bonus, salary, total = tdc1)

# A tibble: 21,855 × 5
    year coname   bonus salary total
   <dbl> <chr>    <dbl>  <dbl> <dbl>
 1  2011 AAR CORP     0   867  5786.
 2  2012 AAR CORP     0   878. 4183.
 3  2013 AAR CORP     0   906. 5248.
 4  2014 AAR CORP     0   906. 5235.
 5  2015 AAR CORP     0   755. 4674.
 6  2016 AAR CORP     0   835  6073.
 7  2017 AAR CORP     0   941  6284.
 8  2018 AAR CORP     0   750  3344.
 9  2019 AAR CORP     0   801. 4736.
10  2020 AAR CORP     0   781. 4123.
# … with 21,845 more rows

We first build up the dataset with select and mutate and the pipe %>%. When we are satisfied with the result, we can save the dataset as an R object with the name us_comp_small.

us_comp_small <-
  select(us_comp, year, coname, bonus,
       salary, total = tdc1) %>%
    mutate(salary_percentage = salary/total)
print(us_comp_small)

# A tibble: 21,855 × 6
    year coname   bonus salary total salary_percentage
   <dbl> <chr>    <dbl>  <dbl> <dbl>             <dbl>
 1  2011 AAR CORP     0   867  5786.             0.150
 2  2012 AAR CORP     0   878. 4183.             0.210
 3  2013 AAR CORP     0   906. 5248.             0.173
 4  2014 AAR CORP     0   906. 5235.             0.173
 5  2015 AAR CORP     0   755. 4674.             0.162
 6  2016 AAR CORP     0   835  6073.             0.138
 7  2017 AAR CORP     0   941  6284.             0.150
 8  2018 AAR CORP     0   750  3344.             0.224
 9  2019 AAR CORP     0   801. 4736.             0.169
10  2020 AAR CORP     0   781. 4123.             0.189
# … with 21,845 more rows

Quick descriptive statistics

group_by(us_comp, gvkey) %>%
    summarise(N = n(), N_CEO = n_distinct(execid),
              average = mean(salary),
              sd = sd(salary),
              med = median(salary),
              min = min(salary),
              max = max(salary)) %>%
    ungroup() %>%
  filter(med > 1000)

# A tibble: 573 × 8
   gvkey      N N_CEO average    sd   med   min   max
   <chr>  <int> <int>   <dbl> <dbl> <dbl> <dbl> <dbl>
 1 001075    11     2   1230. 109.  1240  1091  1395 
 2 001078    11     2   1814. 214.  1900  1298. 1973.
 3 001161    11     3    944. 146.  1000.  566. 1096.
 4 001209    12     2   1239. 131.  1200   905. 1402.
 5 001274    11     1   1082. 101.  1030  1000  1250 
 6 001300    11     2   1716. 159.  1800  1415. 1890 
 7 001380    11     1   1500    0   1500  1500  1500 
 8 001440    11     2   1324. 176.  1325.  903. 1522.
 9 001447    11     2   1821. 257.  2000  1488. 2038.
10 001449    11     1   1437.  12.7 1441. 1399. 1441.
# … with 563 more rows

summarise(us_comp, N = n(), N_CEO = n_distinct(execid),
              average = mean(salary),
              sd = sd(salary),
              med = median(salary),
              min = min(salary),
              max = max(salary),
          .by = gvkey) %>%
  filter(med > 1000)

# A tibble: 573 × 8
   gvkey      N N_CEO average    sd   med   min   max
   <chr>  <int> <int>   <dbl> <dbl> <dbl> <dbl> <dbl>
 1 001075    11     2   1230. 109.  1240  1091  1395 
 2 001078    11     2   1814. 214.  1900  1298. 1973.
 3 001161    11     3    944. 146.  1000.  566. 1096.
 4 001209    12     2   1239. 131.  1200   905. 1402.
 5 001274    11     1   1082. 101.  1030  1000  1250 
 6 001300    11     2   1716. 159.  1800  1415. 1890 
 7 001380    11     1   1500    0   1500  1500  1500 
 8 001440    11     2   1324. 176.  1325.  903. 1522.
 9 001447    11     2   1821. 257.  2000  1488. 2038.
10 001449    11     1   1437.  12.7 1441. 1399. 1441.
# … with 563 more rows
