Chapter 4 Research tools - Data Analysis | Just Enough To Be Dangerous
…
You can see that the company, American Airlines, has had three
CEOs since 2011. I used the gvkey to select a company and not
its name. You will often use an id or a database key especially
if you are working with multiple datasets and you want to link
observations from one dataset to observations in the other
dataset.

We can also filter data based on other variables. For instance,
the below filters the observations from 2014 where the CEO had
a salary over $1,000,000.

filter(us_comp, salary > 1000, year == 2014)

## # A tibble: 271 x 22
##     year gvkey cusip exec_fullname coname ceoann execid bonus salary
##    <dbl> <chr> <chr> <chr>         <chr>  <chr>  <chr>  <dbl>  <dbl>
##  1  2014 0010… 7234… Donald E. Br… PINNA… CEO    05835     0   1240 
##  2  2014 0010… 2824… Miles D. Whi… ABBOT… CEO    14300     0   1973.
##  3  2014 0011… 7903… Rory P. Read  ADVAN… CEO    42390     0   1000.
##  4  2014 0013… 4385… David M. Cote HONEY… CEO    20931  5500   1866.
##  5  2014 0013… 4280… John B. Hess  HESS … CEO    02132     0   1500 
##  6  2014 0014… 2553… Nicholas K. … AMERI… CEO    40778     0   1241.
##  7  2014 0014… 2581… Kenneth I. C… AMERI… CEO    02157  4500   2000 
##  8  2014 0014… 1055… Daniel Paul … AFLAC… CEO    00013     0   1441.
##  9  2014 0014… 2687… Robert Herma… AMERI… CEO    20972     0   1385.
## 10  2014 0015… 3110… Frank S. Her… AMETE… CEO    04252   520.  1182.
##    stock_awards_fv stock_unvest_val eip_unearn_num eip_unearn_val
##              <dbl>            <dbl>          <dbl>          <dbl>
##  1           4200.           11416.           220.         14999.
##  2           4650.               0            315.         14169.
##  3           5073.            2008.          2149.          5695.
##  4              0                0              0              0 
##  5           7820.            9818.           348.         25675.
##  6           6720.            6688.           215.         26086.
##  7          14965.               0            423.         39325.
##  8           2141.               0            326.         19928.
##  9           6887.               0            418.         23409.
## 10              0             5582.             0              0 
## # ... with 261 more rows, and 9 more variables: option_awards <dbl>,
## #   option_awards_blk_value <dbl>, option_awards_num <dbl>, tdc1 <dbl>,
## #   tdc2 <dbl>, shrown_tot_pct <dbl>, becameceo <date>, joined_co <date>,
## #   reason <chr>

You can also select some variables if you are only interested in
those. If a variable has an undescriptive name, you can use
select to rename the variable. For instance, tdc1 is the total
compensation of a the CEO. A more descriptive name will help you
to remember what the variable actually means.

select(us_comp, year, coname, bonus, salary, total = tdc1)

## # A tibble: 3,458 x 5
##     year coname                      bonus salary  total
##    <dbl> <chr>                       <dbl>  <dbl>  <dbl>
##  1  2011 AMERICAN AIRLINES GROUP INC     0   614.  5527.
##  2  2012 AMERICAN AIRLINES GROUP INC     0   618.   656.
##  3  2013 AMERICAN AIRLINES GROUP INC     0   592. 19093.
##  4  2014 AMERICAN AIRLINES GROUP INC     0   688. 12302.
##  5  2015 AMERICAN AIRLINES GROUP INC     0   232. 11419.
##  6  2016 AMERICAN AIRLINES GROUP INC     0     0    141.
##  7  2017 AMERICAN AIRLINES GROUP INC     0     0  18115.
##  8  2011 PINNACLE WEST CAPITAL CORP      0  1091   6698.
##  9  2012 PINNACLE WEST CAPITAL CORP      0  1146  10123.
## 10  2013 PINNACLE WEST CAPITAL CORP      0  1203.  7124.
## # ... with 3,448 more rows

You can also create new variables with the mutate function. I
created a variable that calculates what percentage of total
compensation is the CEO’s salary.

select(us_comp, year, coname, bonus, salary, total = tdc1) %>%
  mutate(salary_percentage = salary / total)  

## # A tibble: 3,458 x 6
##     year coname                      bonus salary  total salary_percentage
##    <dbl> <chr>                       <dbl>  <dbl>  <dbl>             <dbl>
##  1  2011 AMERICAN AIRLINES GROUP INC     0   614.  5527.            0.111 
##  2  2012 AMERICAN AIRLINES GROUP INC     0   618.   656.            0.942 
##  3  2013 AMERICAN AIRLINES GROUP INC     0   592. 19093.            0.0310
##  4  2014 AMERICAN AIRLINES GROUP INC     0   688. 12302.            0.0559
##  5  2015 AMERICAN AIRLINES GROUP INC     0   232. 11419.            0.0203
##  6  2016 AMERICAN AIRLINES GROUP INC     0     0    141.            0     
##  7  2017 AMERICAN AIRLINES GROUP INC     0     0  18115.            0     
##  8  2011 PINNACLE WEST CAPITAL CORP      0  1091   6698.            0.163 
##  9  2012 PINNACLE WEST CAPITAL CORP      0  1146  10123.            0.113 
## 10  2013 PINNACLE WEST CAPITAL CORP      0  1203.  7124.            0.169 
## # ... with 3,448 more rows
…
You can use pipe statement to make your own descriptive
statistics table. I created a table with some statistics for each
firm. I first group the observations based on the gvkey and
then summarise each group with the same key by defining a number
of new variables.

group_by(us_comp, gvkey) %>%
  summarise(N = n(), N_CEO = n_distinct(execid), 
            average = mean(salary), sd = sd(salary),
            med = median(salary), minimum = min(salary), 
            maximum = max(salary)) %>%
  ungroup()

## # A tibble: 500 x 8
##    gvkey      N N_CEO average    sd   med minimum maximum
##    <chr>  <int> <int>   <dbl> <dbl> <dbl>   <dbl>   <dbl>
##  1 001045     7     3    392. 306.   592.      0     688.
##  2 001075     7     1   1232.  93.3 1240    1091    1355 
##  3 001078     7     1   1910.  27.6 1900    1900    1973.
##  4 001161     7     3    890. 155.   925.    566.   1000.
##  5 001209     7     2   1158. 112.  1200     905.   1200 
##  6 001230     7     2    453.  44.5  437.    410.    535.
##  7 001300     7     2   1780. 166.  1800    1415.   1890 
##  8 001327     7     2    738.  83.3  748.    635.    850 
##  9 001380     7     1   1500    0   1500    1500    1500 
## 10 001440     7     2   1233. 156.  1280.    903.   1375 
## # ... with 490 more rows
…
