Method Package - Interpretation
…
There is another way of doing the calculation. We can also predict the probability assuming that an observation is in the treatment group (pred_x1) and assuming that an observation is in the control group (pred_x2). We can then calculate the Average Marginal Effect as the mean effect within the sample and we get a very similar result.

pred_new <- function(x = 0, control = 1){
  plogis(predict(logit_controls, newdata = tibble(x = x, control = control)))
}
sol_controls %>%
  mutate(pred_x1 = map_dbl(control, ~ pred_new(1, ..1)),
         pred_x0 = map_dbl(control, ~ pred_new(0, ..1)),
         effect = pred_x1 - pred_x0) %>%
  print() %>%
  summarise(AME = mean(effect))

# A tibble: 1,001 × 6
       x control     y pred_x1 pred_x0 effect
   <int>   <dbl> <int>   <dbl>   <dbl>  <dbl>
 1     0       0     0   0.781  0.119   0.662
 2     0       1     1   0.970  0.554   0.416
 3     1       1     1   0.970  0.554   0.416
 4     0      -1     0   0.279  0.0144  0.265
 5     1      -1     0   0.279  0.0144  0.265
 6     0      -1     0   0.279  0.0144  0.265
 7     0      -1     0   0.279  0.0144  0.265
 8     1      -1     0   0.279  0.0144  0.265
 9     0       1     1   0.970  0.554   0.416
10     0       0     1   0.781  0.119   0.662
# ℹ 991 more rows
…
