Method Package - Peer Firms
…
  data <- returns %>%
    filter(permno %in% permnos, date >= begin, date <= end) %>%
    filter(!is.na(ret)) %>%
    pivot_wider(values_from = ret, id_cols = date, names_from = permno) %>%
    mutate(day = date - anndat) %>%
    select(-date) %>%
    arrange(day)
  vars <- names(data)
  names(data) <- if_else(vars == as.character(permno_y),
                         "return", vars)
  return(data)
}
get_returns(anndat, permnos[3], permnos)

# A tibble: 157 × 3
    `50906`   return day      
      <dbl>    <dbl> <drtn>   
 1  0.00787  0.0438  -300 days
 2  0.00391 -0.0230  -299 days
 3 -0.0272  -0.0164  -298 days
 4  0.0120  -0.00104 -297 days
 5  0.0277   0.0625  -294 days
 6  0.0385   0.00588 -293 days
 7 -0.0185  -0.0175  -292 days
 8  0.00377  0.0218  -291 days
 9 -0.0414  -0.0311  -287 days
10  0.0157   0.00501 -286 days
# ℹ 147 more rows
…
Rows: 4
Columns: 6
$ gvkey   <chr> "063799", "063799", "063799", "017208"
$ permno  <dbl> 84058, 84058, 84058, 83729
$ anndat  <date> 2003-01-23, 2003-04-22, 2003-07-24, 2003-04-18
$ permnos <list> <62770, 65138, 20694, 85073, 22032, 86685, 23916, 35167, 36469…
$ N       <dbl> 200, 200, 200, 200
$ data    <list> [<tbl_df[157 x 199]>], [<tbl_df[156 x 200]>], [<tbl_df[155 x 2…

data_ml <- pull(peers, data)[[1]] %>%
  select_if(~!any(is.na(.)))
print(data_ml)

# A tibble: 157 × 193
    `10002`  `10304`  `10562`  `10563`  `10588`   `10623`  `10725`  `10825`
      <dbl>    <dbl>    <dbl>    <dbl>    <dbl>     <dbl>    <dbl>    <dbl>
 1  0.0508  -0.00128  0.00498  0.00394 -0.00187 -0.0106    0.00609 -0.0147 
 2  0        0.00511  0.00142  0        0.00900  0         0.00700 -0.00199
 3  0.0242  -0.00551  0.00566 -0.0196   0.00747 -0.00391  -0.00474  0.0115 
 4  0.0142   0.00469  0.00141  0.0299   0.0221   0.000357  0.0133   0.00296
 5  0.0349  -0.00551  0.00351  0        0.0227   0.0250    0.0282  -0.00246
 6  0.00674  0.0128  -0.00210 -0.0275   0.0113   0.0157    0.0146   0.0173 
 7  0.0179  -0.0105   0.00421  0.00806  0.0192   0.0257    0.0231   0.0155 
 8  0.0263   0.0195   0.0216   0.0160   0.0137   0.00836   0.0349   0.00382
 9  0.0231  -0.0187  -0.0219   0        0.0287  -0.00166  -0.0182   0.00429
10 -0.0141   0.0187   0.0238   0.0331   0.00952  0.0498    0.0142   0.0491 
# ℹ 147 more rows
# ℹ 185 more variables: `10906` <dbl>, `10913` <dbl>, `10916` <dbl>,
#   `11216` <dbl>, `11348` <dbl>, `11389` <dbl>, `11634` <dbl>, `11808` <dbl>,
#   `11823` <dbl>, `16644` <dbl>, `20694` <dbl>, `22032` <dbl>, `23326` <dbl>,
#   `23916` <dbl>, `24628` <dbl>, `27254` <dbl>, `35167` <dbl>, `35503` <dbl>,
#   `35829` <dbl>, `35917` <dbl>, `36469` <dbl>, `39766` <dbl>, `41807` <dbl>,
#   `44688` <dbl>, `47159` <dbl>, `52265` <dbl>, `52840` <dbl>, …

Linear model

We first going to run a traditional linear model within the tidymodels framework. The approach is overkill for just running a linear model but it will help us to build up the full workflow. In the code, I first split the data in a proportion \(\frac{N - 20}{N}\) of training data and a proportion $ frac{20}{N}$ of test data, where \(N\) is the number of days of data available. As a result, we will use the training data to determine the parameters and than use that model to predict the last 20 days as test data. Next, we set which type of model we want to use, a linear model. We than fit the model where we specify the return variable as the outcome variable and we use the dot . to indicate that we want to use all the other variables as predictors. Finally, the tidy function gives the estimates and statistics for the estimates in a format that works with the tidyverse.

N <- nrow(data_ml)
data_split <- initial_time_split(data_ml, prop = (N - 20)/N)
train <- training(data_split)
test <- testing(data_split)
lm_mod <- linear_reg()
lm_fit <- lm_mod %>%
  fit(return ~ ., data = train)
tidy(lm_fit)

# A tibble: 193 × 5
   term         estimate std.error statistic p.value
   <chr>           <dbl>     <dbl>     <dbl>   <dbl>
 1 (Intercept)  -0.00257       NaN       NaN     NaN
 2 `10002`       2.23          NaN       NaN     NaN
 3 `10304`     -21.6           NaN       NaN     NaN
 4 `10562`      -5.43          NaN       NaN     NaN
 5 `10563`      -2.23          NaN       NaN     NaN
 6 `10588`      -5.37          NaN       NaN     NaN
 7 `10623`       1.66          NaN       NaN     NaN
 8 `10725`       5.77          NaN       NaN     NaN
 9 `10825`      -5.44          NaN       NaN     NaN
10 `10906`       9.65          NaN       NaN     NaN
# ℹ 183 more rows
…
Before we do that, we need to fix another issue. In the previous code, we used the day variable as a predictor which was not what we intended. You can see that we can get an estimate for day in the code below. Also notice the advantage of using tidy representation of the estimated coefficients is that we can use filter to focus on some terms. To solve the issue with the day variable, we will use a recipe to set the formula and do some data cleaning. Specifically, we will specify that the day variable is an ID variable which means that it should not be used for prediction but we want to keep it in the data for investigating the fit later.

tidy(lm_fit) %>%
  filter(term == "day")

# A tibble: 1 × 5
  term  estimate std.error statistic p.value
  <chr>    <dbl>     <dbl>     <dbl>   <dbl>
1 day         NA        NA        NA      NA

lm_recipe <- recipe(return ~ ., data = train) %>%
  update_role(day, new_role = "ID")
summary(lm_recipe)

# A tibble: 193 × 4
   variable type      role      source  
   <chr>    <list>    <chr>     <chr>   
 1 10002    <chr [2]> predictor original
 2 10304    <chr [2]> predictor original
 3 10562    <chr [2]> predictor original
 4 10563    <chr [2]> predictor original
 5 10588    <chr [2]> predictor original
 6 10623    <chr [2]> predictor original
 7 10725    <chr [2]> predictor original
 8 10825    <chr [2]> predictor original
 9 10906    <chr [2]> predictor original
10 10913    <chr [2]> predictor original
# ℹ 183 more rows
…
net_tune <-
  net_tune_wf %>%
  tune_grid(
    resamples = windows,
    grid = grid_hyper,
    metrics = metric_set(rmse)
  )

Next, we collect the RMSE measures for the out-of-sample predictions for each combination of penalty and mixture. We see that a lot of models with some regularisation give the best out-of-sample predictions. In a more realistic, complicated example, I would expect there to be one combination that is the best.

collect_metrics(net_tune) %>%
  arrange(mean)

# A tibble: 66 × 8
   penalty mixture .metric .estimator   mean     n std_err .config              
     <dbl>   <dbl> <chr>   <chr>       <dbl> <int>   <dbl> <chr>                
 1     0.2     0.1 rmse    standard   0.0165    10 0.00352 Preprocessor1_Model09
 2     0.3     0.1 rmse    standard   0.0165    10 0.00352 Preprocessor1_Model10
 3     0.4     0.1 rmse    standard   0.0165    10 0.00352 Preprocessor1_Model11
 4     0.5     0.1 rmse    standard   0.0165    10 0.00352 Preprocessor1_Model12
 5     0.1     0.2 rmse    standard   0.0165    10 0.00352 Preprocessor1_Model14
 6     0.2     0.2 rmse    standard   0.0165    10 0.00352 Preprocessor1_Model15
 7     0.3     0.2 rmse    standard   0.0165    10 0.00352 Preprocessor1_Model16
 8     0.4     0.2 rmse    standard   0.0165    10 0.00352 Preprocessor1_Model17
 9     0.5     0.2 rmse    standard   0.0165    10 0.00352 Preprocessor1_Model18
10     0.1     0.3 rmse    standard   0.0165    10 0.00352 Preprocessor1_Model20
# ℹ 56 more rows
…
  vars <- names(data)
  names(data) <- if_else(vars == as.character(permno_y),
                         "return", vars)
  return(data)
}
get_returns_event(anndat, permnos[3], permnos) %>%
  arrange(-day)

# A tibble: 244 × 3
    `50906`   return day    
      <dbl>    <dbl> <drtn> 
 1  0.0194  -0.0184  74 days
 2  0.0665   0.0155  73 days
 3  0.0380   0.00323 72 days
 4  0.0262  -0.0178  71 days
 5  0.00620 -0.00316 70 days
 6  0.0179  -0.00629 67 days
 7  0.0485   0.0108  66 days
 8 -0.00110 -0.0193  65 days
 9  0.0231   0.0926  64 days
10  0.0114  -0.00339 60 days
# ℹ 234 more rows

get_returns_event(anndat = peers$anndat[1],
                  permno_y = peers$permno[1],
                  permnos = peers$permnos[[1]])

# A tibble: 243 × 192
    `10002`  `10304`  `10562`  `10563`   `10623`  `10725`  `10825`   `10906`
      <dbl>    <dbl>    <dbl>    <dbl>     <dbl>    <dbl>    <dbl>     <dbl>
 1  0.0508  -0.00128  0.00498  0.00394 -0.0106    0.00609 -0.0147  -0.00645 
 2  0        0.00511  0.00142  0        0         0.00700 -0.00199  0.0138  
 3  0.0242  -0.00551  0.00566 -0.0196  -0.00391  -0.00474  0.0115  -0.00791 
 4  0.0142   0.00469  0.00141  0.0299   0.000357  0.0133   0.00296 -0.00532 
 5  0.0349  -0.00551  0.00351  0        0.0250    0.0282  -0.00246  0.00573 
 6  0.00674  0.0128  -0.00210 -0.0275   0.0157    0.0146   0.0173   0.0137  
 7  0.0179  -0.0105   0.00421  0.00806  0.0257    0.0231   0.0155  -0.000749
 8  0.0263   0.0195   0.0216   0.0160   0.00836   0.0349   0.00382  0.0124  
 9  0.0231  -0.0187  -0.0219   0       -0.00166  -0.0182   0.00429 -0.0118  
10 -0.0141   0.0187   0.0238   0.0331   0.0498    0.0142   0.0491   0.00824 
# ℹ 233 more rows
# ℹ 184 more variables: `10913` <dbl>, `10916` <dbl>, `11216` <dbl>,
#   `11348` <dbl>, `11389` <dbl>, `11634` <dbl>, `11808` <dbl>, `11823` <dbl>,
#   `16644` <dbl>, `20694` <dbl>, `22032` <dbl>, `23326` <dbl>, `23916` <dbl>,
#   `24628` <dbl>, `27254` <dbl>, `35167` <dbl>, `35503` <dbl>, `35829` <dbl>,
#   `35917` <dbl>, `36469` <dbl>, `39766` <dbl>, `41807` <dbl>, `44688` <dbl>,
#   `47159` <dbl>, `52265` <dbl>, `52840` <dbl>, `56232` <dbl>, …
…
