Method Package - Stock price data
…
I use the same syntax as before to call the WRDS databases as before with sql interspersed with the R parameters created in the previous code block. We get the daily volume, return, price, shares outstanding, cumulative factor to adjust price, and cumulative factor to adjust shares. The latter two are adjustment factors for stock splits and dividends which we probably will not need but if we do we have them.

This is by far the largest download from WRDS and this is why it has it’s own page. We do not want to rerun this more than strictly necessary.

SELECT permno, date, vol, ret, prc, shrout, cfacpr, cfacshr
FROM crsp_a_stock.dsf
WHERE permno IN (?permno_sql)
AND date BETWEEN ?begin_date AND ?end_date

all_stocks <- as_tibble(crsp_query) %>%
  rename_all(tolower)
print(all_stocks)

# A tibble: 14,973,747 × 8
   permno date          vol      ret   prc shrout cfacpr cfacshr
    <dbl> <date>      <dbl>    <dbl> <dbl>  <dbl>  <dbl>   <dbl>
 1  10002 1994-03-10    700 -0.00952 13      2999   1.5     1.5 
 2  10010 1994-03-10  65220 -0.0161   7.62   9348   1.1     1.1 
 3  10011 1994-03-10  31600  0.0179   7.12   5303   1       1   
 4  10012 1994-03-10  46000 -0.0500   2.38  14581   1       1   
 5  10019 1994-03-10   2100  0        8.75   5238   1.5     1.5 
 6  10025 1994-03-10  16304 -0.00685 18.1    7329   1       1   
 7  10026 1994-03-10  23525 -0.00680 18.2   10341   2       2   
 8  10032 1994-03-10   4269  0       16.2    6456   4       4   
 9  10035 1994-03-10 268078  0.0282  18.2   13029   1       1   
10  10042 1994-03-10 103900  0        3.56  25318   0.25    0.25
# ℹ 14,973,737 more rows
…
