Method Package - Combining databases
…
# A tibble: 1 × 2
  permno gvkey
   <int> <int>
1  28750 28306

Unfortunately, we also have the problem that sometimes the permno identifier for CRSP is associated with multiple gvkeys. This is more problematic, I think we will need to make sure we don’t run into trouble with this.

crsp_compu %>%
  summarise(stdt = min(stdt), enddt = max(enddt), .by = c(gvkey, permno)) %>%
  mutate(N = n(), .by = permno) %>%
  filter(N > 1) %>%
  arrange(desc(N), permno, stdt)

# A tibble: 1,487 × 5
   gvkey  permno stdt       enddt          N
   <chr>   <dbl> <date>     <date>     <int>
 1 185620  12350 2010-10-22 2012-10-02     3
 2 163806  12350 2012-10-03 2021-11-04     3
 3 040116  12350 2021-11-05 NA             3
 4 015215  13883 2013-04-30 2018-12-09     3
 5 034528  13883 2018-12-10 2021-06-27     3
 6 039104  13883 2021-06-28 NA             3
 7 007280  19289 1950-01-01 1984-02-29     3
 8 012127  19289 1984-03-01 1987-06-29     3
 9 014064  19289 1987-06-30 2006-08-29     3
10 003923  29787 1977-10-18 1979-12-31     3
# ℹ 1,477 more rows
…
linking_table <- ibes_compu %>%
  select(gvkey, ibtic, isin, cusip) %>%
  inner_join(crsp_compu, by = join_by(gvkey == gvkey),
             multiple = "all") %>%
  rename(ticker = ibtic, start_date = stdt, end_date = enddt) %>%
  distinct() %>%
  print()

Warning in inner_join(., crsp_compu, by = join_by(gvkey == gvkey), multiple = "all"): Detected an unexpected many-to-many relationship between `x` and `y`.
ℹ Row 17 of `x` matches multiple rows in `y`.
ℹ Row 98 of `y` matches multiple rows in `x`.
ℹ If a many-to-many relationship is expected, set `relationship =
  "many-to-many"` to silence this warning.

# A tibble: 24,237 × 7
   gvkey  ticker isin         cusip     permno start_date end_date  
   <chr>  <chr>  <chr>        <chr>      <dbl> <date>     <date>    
 1 001001 AMFD   US0001651001 000165100  10015 1983-09-20 1986-07-31
 2 001003 ANTQ   US0003541002 000354100  10031 1983-12-07 1989-08-16
 3 001004 AIR    US0003611052 000361105  54594 1972-04-24 NA        
 4 001009 ABSI   US0007811047 000781104  10074 1982-01-18 1996-03-13
 5 001011 ACSE   US0008723092 000872309  10082 1983-03-21 1995-09-28
 6 001013 ADCT   US0008863096 000886309  50906 1979-03-16 2010-12-31
 7 001017 AELN   US0010301051 001030105  10154 1972-12-14 1996-02-29
 8 001020 AFGN   <NA>         001054931  68806 1972-12-14 1988-04-05
 9 001021 AFPC   US0010582056 001058205  10218 1980-10-14 1999-03-19
10 001023 AGS    US0012401008 001240100  66755 1982-06-09 1988-10-05
# ℹ 24,227 more rows
…
