Method Package - Introduction to Rstudio for Accounting and Finance
…
filter(us_comp, bonus == 0, year == 2012)

# A tibble: 1,718 × 22
    year gvkey  cusip    exec_fullname         coname ceoann execid bonus salary
   <dbl> <chr>  <chr>    <chr>                 <chr>  <chr>  <chr>  <dbl>  <dbl>
 1  2012 001004 00036110 David P. Storch       AAR C… CEO    09249      0   878.
 2  2012 001045 02376R10 Thomas W. Horton      AMERI… CEO    26059      0   618.
 3  2012 001075 72348410 Donald E. Brandt, CPA PINNA… CEO    05835      0  1146 
 4  2012 001076 74319R10 Ronald W. Allen       PROG … CEO    00283      0   850 
 5  2012 001078 00282410 Miles D. White, M.B.… ABBOT… CEO    14300      0  1900 
 6  2012 001094 00444610 Albert L. Eilender    ACETO… CEO    46204      0   626.
 7  2012 001161 00790310 Rory P. Read          ADVAN… CEO    42390      0  1000.
 8  2012 001177 00817Y10 Mark Thomas Bertolini AETNA… CEO    31029      0   977.
 9  2012 001209 00915810 John E. McGlade       AIR P… CEO    27315      0  1200 
10  2012 001230 01165910 Bradley D. Tilden     ALASK… CEO    21308      0   420.
# ℹ 1,708 more rows
# ℹ 13 more variables: stock_awards_fv <dbl>, stock_unvest_val <dbl>,
#   eip_unearn_num <dbl>, eip_unearn_val <dbl>, option_awards <dbl>,
#   option_awards_blk_value <dbl>, option_awards_num <dbl>, tdc1 <dbl>,
#   tdc2 <dbl>, shrown_tot_pct <dbl>, becameceo <date>, joined_co <date>,
#   reason <chr>
…
Moving on

select(us_comp, year, coname, bonus, salary, total = tdc1)

# A tibble: 26,574 × 5
    year coname   bonus salary total
   <dbl> <chr>    <dbl>  <dbl> <dbl>
 1  2011 AAR CORP     0   867  5786.
 2  2012 AAR CORP     0   878. 4183.
 3  2013 AAR CORP     0   906. 5248.
 4  2014 AAR CORP     0   906. 5235.
 5  2015 AAR CORP     0   755. 4674.
 6  2016 AAR CORP     0   835  6073.
 7  2017 AAR CORP     0   941  6284.
 8  2018 AAR CORP     0   750  3344.
 9  2019 AAR CORP     0   801. 4736.
10  2020 AAR CORP     0   781. 4123.
# ℹ 26,564 more rows

We first build up the dataset with select and mutate and the pipe %>%. When we are satisfied with the result, we can save the dataset as an R object with the name us_comp_small.

us_comp_small <-
  select(us_comp, year, coname, bonus,
       salary, total = tdc1) %>%
    mutate(salary_percentage = salary/total)
print(us_comp_small)

# A tibble: 26,574 × 6
    year coname   bonus salary total salary_percentage
   <dbl> <chr>    <dbl>  <dbl> <dbl>             <dbl>
 1  2011 AAR CORP     0   867  5786.             0.150
 2  2012 AAR CORP     0   878. 4183.             0.210
 3  2013 AAR CORP     0   906. 5248.             0.173
 4  2014 AAR CORP     0   906. 5235.             0.173
 5  2015 AAR CORP     0   755. 4674.             0.162
 6  2016 AAR CORP     0   835  6073.             0.138
 7  2017 AAR CORP     0   941  6284.             0.150
 8  2018 AAR CORP     0   750  3344.             0.224
 9  2019 AAR CORP     0   801. 4736.             0.169
10  2020 AAR CORP     0   781. 4123.             0.189
# ℹ 26,564 more rows

Quick descriptive statistics

group_by(us_comp, gvkey) %>%
    summarise(N = n(), N_CEO = n_distinct(execid),
              average = mean(salary),
              sd = sd(salary),
              med = median(salary),
              min = min(salary),
              max = max(salary)) %>%
    ungroup() %>%
  filter(med > 1000)

# A tibble: 637 × 8
   gvkey      N N_CEO average    sd   med   min   max
   <chr>  <int> <int>   <dbl> <dbl> <dbl> <dbl> <dbl>
 1 001075    13     2   1212. 109.  1203. 1091  1395 
 2 001078    13     2   1766. 229.  1900  1298. 1973.
 3 001161    13     3    980. 159.  1000.  566. 1200 
 4 001209    14     2   1255. 127.  1255.  905. 1402.
 5 001274    11     1   1082. 101.  1030  1000  1250 
 6 001300    13     3   1677. 199.  1700  1225  1890 
 7 001380    13     1   1500    0   1500  1500  1500 
 8 001440    13     2   1303. 214.  1325.  862. 1522.
 9 001447    13     2   1771. 264.  2000  1488. 2038.
10 001449    13     1   1438.  11.6 1441. 1399. 1441.
# ℹ 627 more rows

summarise(us_comp, N = n(), N_CEO = n_distinct(execid),
              average = mean(salary),
              sd = sd(salary),
              med = median(salary),
              min = min(salary),
              max = max(salary),
          .by = gvkey) %>%
  filter(med > 1000)

# A tibble: 637 × 8
   gvkey      N N_CEO average    sd   med   min   max
   <chr>  <int> <int>   <dbl> <dbl> <dbl> <dbl> <dbl>
 1 001075    13     2   1212. 109.  1203. 1091  1395 
 2 001078    13     2   1766. 229.  1900  1298. 1973.
 3 001161    13     3    980. 159.  1000.  566. 1200 
 4 001209    14     2   1255. 127.  1255.  905. 1402.
 5 001274    11     1   1082. 101.  1030  1000  1250 
 6 001300    13     3   1677. 199.  1700  1225  1890 
 7 001380    13     1   1500    0   1500  1500  1500 
 8 001440    13     2   1303. 214.  1325.  862. 1522.
 9 001447    13     2   1771. 264.  2000  1488. 2038.
10 001449    13     1   1438.  11.6 1441. 1399. 1441.
# ℹ 627 more rows
