Method Package - Matching theory
…
We can create new datasets where the talent_rate is increased to 1 (high talent) and the effect of CEOs on the surplus is increased to .015 instead of .10. I choose .10 in this simulation instead of 10 so that all values can be interpreted in billion USD to mimic the real data. Again, that is a rather arbitrary scaling issue.

data1 <- create_fake_data(obs = 500, talent_rate = 2/3, C = .01) %>%
  mutate(talent_rate = "low talent", C = "low effect")
data2 <- create_fake_data(obs = 500, talent_rate = 1, C = .01) %>%
  mutate(talent_rate = "high talent", C = "low effect")
data3 <- create_fake_data(obs = 500, talent_rate = 2/3, C = .015) %>%
  mutate(talent_rate = "low talent", C = "high effect")
data4 <- create_fake_data(obs = 500, talent_rate = 1, C = .015) %>%
  mutate(talent_rate = "high talent", C = "high effect")
data_exp <- bind_rows(data1, data2, data3, data4)
data_exp

# A tibble: 2,000 × 6
       n  size talent   wage talent_rate C         
   <int> <dbl>  <dbl>  <dbl> <chr>       <chr>     
 1     1 600    -1.5  0.0241 low talent  low effect
 2     2 300    -2.38 0.0197 low talent  low effect
 3     3 200    -3.12 0.0172 low talent  low effect
 4     4 150    -3.78 0.0156 low talent  low effect
 5     5 120    -4.39 0.0143 low talent  low effect
 6     6 100    -4.95 0.0134 low talent  low effect
 7     7  85.7  -5.49 0.0126 low talent  low effect
 8     8  75    -6    0.0120 low talent  low effect
 9     9  66.7  -6.49 0.0114 low talent  low effect
10    10  60    -6.96 0.0110 low talent  low effect
# ℹ 1,990 more rows
…
