Method Package - Introduction
…
  return(beta)
}
nsim <- 1000
nrows <- nrow(data_2sls)
bootstrap2 <-
  data_2sls[rep(1:nrows, times = nsim),] %>%
  mutate(sim = rep(1:nsim, each = nrows),
         raw_weights = rexp(nsim *  nrows, 1)) %>%
  mutate(weights = raw_weights/sum(raw_weights), .by = sim) %>%
  select(sim, iv, x, y, weights) %>%
  nest(.by = sim) %>%
  mutate(beta = map_dbl(data, get_beta_2)) %>%
  print()

# A tibble: 1,000 × 3
     sim data                   beta
   <int> <list>                <dbl>
 1     1 <tibble [10,000 × 4]> 0.932
 2     2 <tibble [10,000 × 4]> 1.15 
 3     3 <tibble [10,000 × 4]> 0.994
 4     4 <tibble [10,000 × 4]> 1.01 
 5     5 <tibble [10,000 × 4]> 1.06 
 6     6 <tibble [10,000 × 4]> 1.12 
 7     7 <tibble [10,000 × 4]> 1.01 
 8     8 <tibble [10,000 × 4]> 1.04 
 9     9 <tibble [10,000 × 4]> 1.07 
10    10 <tibble [10,000 × 4]> 1.08 
# ℹ 990 more rows
…
